%YAML 1.1
%TAG !u! tag:unity3d.com,2011:
--- !u!1 &6827541389673636990
GameObject:
  m_ObjectHideFlags: 0
  m_CorrespondingSourceObject: {fileID: 0}
  m_PrefabInstance: {fileID: 0}
  m_PrefabAsset: {fileID: 0}
  serializedVersion: 6
  m_Component:
  - component: {fileID: 6827541389673636988}
  - component: {fileID: 6827541389673636989}
  - component: {fileID: -6083985343780946924}
  m_Layer: 0
  m_Name: listaAvatarsPrefab
  m_TagString: Untagged
  m_Icon: {fileID: 0}
  m_NavMeshLayer: 0
  m_StaticEditorFlags: 0
  m_IsActive: 1
--- !u!4 &6827541389673636988
Transform:
  m_ObjectHideFlags: 0
  m_CorrespondingSourceObject: {fileID: 0}
  m_PrefabInstance: {fileID: 0}
  m_PrefabAsset: {fileID: 0}
  m_GameObject: {fileID: 6827541389673636990}
  m_LocalRotation: {x: 0, y: 0, z: 0, w: 1}
  m_LocalPosition: {x: 376.4823, y: 181.25462, z: -61.17441}
  m_LocalScale: {x: 1, y: 1, z: 1}
  m_Children: []
  m_Father: {fileID: 0}
  m_RootOrder: 0
  m_LocalEulerAnglesHint: {x: 0, y: 0, z: 0}
--- !u!114 &6827541389673636989
MonoBehaviour:
  m_ObjectHideFlags: 0
  m_CorrespondingSourceObject: {fileID: 0}
  m_PrefabInstance: {fileID: 0}
  m_PrefabAsset: {fileID: 0}
  m_GameObject: {fileID: 6827541389673636990}
  m_Enabled: 1
  m_EditorHideFlags: 0
  m_Script: {fileID: 11500000, guid: 81091c2bb6bd62b4782d9f20748ffe50, type: 3}
  m_Name: 
  m_EditorClassIdentifier: 
  textureAvatar:
  - {fileID: 2800000, guid: cc723a4881a775a4ab5c14f3841e6abe, type: 3}
  - {fileID: 2800000, guid: 9b3f8b3fa5c6c454fa67eb7bae2a1c68, type: 3}
  - {fileID: 2800000, guid: 3dae905d6a4f66146bded9831f9a0bd1, type: 3}
  - {fileID: 2800000, guid: e812e3155ab530a458ea1239ddb164bf, type: 3}
  - {fileID: 2800000, guid: cc17a323c42084c489f3e4c5f1e0ff83, type: 3}
  - {fileID: 2800000, guid: aa3040484576efa4392611cd0281d656, type: 3}
  - {fileID: 2800000, guid: c81c7f3aa52f64541aa9f9aeae90d7b7, type: 3}
  - {fileID: 2800000, guid: 7c78256730adbd34b9b331efe52b7be9, type: 3}
  - {fileID: 2800000, guid: 24273ced49f1f3845bb3be8bb696d45a, type: 3}
  - {fileID: 2800000, guid: f536d119d925ea04687c4dd3930b1898, type: 3}
  - {fileID: 2800000, guid: 6be8515c6e2ec6a4bb0c40e80a9a7e84, type: 3}
  - {fileID: 2800000, guid: ee02d6abdca5908408db21918ff28732, type: 3}
--- !u!114 &-6083985343780946924
MonoBehaviour:
  m_ObjectHideFlags: 0
  m_CorrespondingSourceObject: {fileID: 0}
  m_PrefabInstance: {fileID: 0}
  m_PrefabAsset: {fileID: 0}
  m_GameObject: {fileID: 6827541389673636990}
  m_Enabled: 1
  m_EditorHideFlags: 0
  m_Script: {fileID: 11500000, guid: 81091c2bb6bd62b4782d9f20748ffe50, type: 3}
  m_Name: 
  m_EditorClassIdentifier: 
  textureAvatar:
  - {fileID: 2800000, guid: 0616a42c6e91b0a45a604a85f85488b9, type: 3}
  - {fileID: 2800000, guid: e46abfe84badaa941b017d9464c6b30d, type: 3}
  - {fileID: 2800000, guid: ace407de7a65a1f45b5a36a00a69f5a6, type: 3}
  - {fileID: 2800000, guid: fe3fc6c61f830594fb2ce55e6063bdcd, type: 3}
  - {fileID: 2800000, guid: 57df25821dec5ec409922c68602faf40, type: 3}
  - {fileID: 2800000, guid: b30bb62a2a8b4324ea333f321317d58e, type: 3}
  - {fileID: 2800000, guid: 3b0ccb48ef8df4f499ca7e314d241d1a, type: 3}
  - {fileID: 2800000, guid: e92e36de9dccb9e4da11442257fbd948, type: 3}
  - {fileID: 2800000, guid: 1997a991928f46c46ac7af7a1778e56c, type: 3}
  - {fileID: 2800000, guid: 70ec2e90ee7b1f445900e95b8dfc6633, type: 3}
  - {fileID: 2800000, guid: 7d6d24fec5df63743872b1c86756b89e, type: 3}
  - {fileID: 2800000, guid: e748e8438b62985448f243437010d5c4, type: 3}
